Year,Percentage of total population that was born abroad,British Army strength,Unemployment rate,Public Net Debt-total percent GDP,The Guardian Circulation
1922,2,,14.3,175.13,40000
1923,2,,11.7,185.67,40000
1924,2,,10.3,178.57,40000
1929,2,,10.4,,47000
1931,2.7,,21.3,163.11,47000
1935,2.7,,15.5,168.62,47000
1945,2.7,,1.3,220.34,51000
1950,2.7,447000,1.6,199.62,126000
1951,4.3,447000,1.3,178.55,126000
1955,4.3,447000,1.2,138.72,163585
1959,4.3,447000,2.3,111.04,163585
1964,5,387000,1.7,88.29,245000
1966,5,387000,1.6,79.2,281000
1970,5,256000,2.7,58.88,306000
1974,6.4,256000,2.6,43.62,306000
1974.5,6.4,256000,2.6,43.62,306000
1979,6.4,256000,5.7,40.12,370000
1983,6.6,222000,12.2,37.74,370000
1987,6.6,222000,10.5,33.86,494000
1992,7.3,226000,9.8,22.78,429000
1997,7.3,226000,7,36.57,428010
2001,8.8,150000,4.7,27.23,410152
2005,8.8,150000,4.75,31.44,376816
2010,8.8,142000,7.54,64.01,302285
2015,13.4,112990,5.3,81.49,185429
2017,13.4,112990,4.34,84.27,156756
2019,13.4,112990,3.58,81.92,141160
