Year,Conservative Votes,Liberal Votes,Labour Votes,Scottish/Welsh Votes,Irish Votes,UKIP/Brexit Votes,Green Votes,Other Votes
1922.0,0.39226145187624284,0.2879077609311151,0.2971218630411483,0.0,0.0,0.0,0.0,0.021788549452543604
1923.0,0.3801694640743598,0.29579451533642925,0.3078828007796777,0.0,0.0,0.0,0.0,0.014427734074339008
1924.0,0.4722939293149529,0.17980504646753187,0.33825359581659586,0.0,0.0,0.0,0.0,0.006759694387950571
1929.0,0.3804934126355764,0.23569974852338615,0.37166804295833056,0.0,0.0,0.0,0.0,0.009913117688599066
1931.0,0.5673946071891834,0.09389921609889118,0.31850736135035623,0.0010019552859785535,0.0,0.0,0.0,0.015563353739238698
1935.0,0.4773888084708056,0.10670483780162472,0.4008589219158996,0.0,0.0,0.0,0.0,0.015047431811670075
1945.0,0.3621236278367123,0.11900898440321933,0.48221905461846665,0.0,0.0,0.0,0.0,0.032458202158900926
1950.0,0.40108273441985887,0.12563098554799412,0.4643002563087773,0.00017595512521733972,0.0,0.0,0.0,0.005965153511716841
1951.0,0.44211917009662155,0.06252544927455142,0.48862243452778525,0.0006371148513258801,0.0,0.0,0.0,0.005339084700361238
1955.0,0.49648112156876606,0.02699550065024074,0.4635729724217285,0.002138670017128867,0.0,0.0,0.0,0.01081173534213582
1959.0,0.4935181532981868,0.058887900301588914,0.43844740031648355,0.003564261982892375,0.0,0.0,0.0,0.005582284100848347
1964.0,0.4340510199780054,0.1120512295261255,0.4412650285518352,0.00482839216504062,0.0,0.0,0.0,0.007804329778993257
1966.0,0.41880150937239924,0.08536556426310961,0.4792293678350484,0.00695206091038933,0.0,0.0,0.0,0.00965149761905347
1970.0,0.4637597023936028,0.07468235871217863,0.4296896278339485,0.016998610526636652,0.0,0.0,0.0,0.014869700533633411
1974.0,0.3783867705048539,0.1933754233752338,0.37661798796885776,0.025655612110898,0.014711792736700958,0.0,0.0,0.011252413303455569
1974.5,0.3597280899429169,0.18317511471132733,0.3969044814209343,0.034462148842054015,0.012935741854959605,0.0,0.0,0.012794423227807888
1979.0,0.4415730442570303,0.13823009241452844,0.373585145563705,0.020405421907828104,0.010431870324667383,0.0,0.0,0.015774425532240784
1983.0,0.4262627821040452,0.25367976540897436,0.28068225822716897,0.018258506782436738,0.013455779872712608,0.0,0.0,0.007660907604662125
1987.0,0.4253700586393387,0.22575578056291515,0.31384944286678124,0.019098551893048772,0.010820066063927603,0.0,0.0,0.00510609997398857
1992.0,0.42139761450003227,0.17932735497925134,0.34935459072605224,0.0257263061692833,0.011121617843289588,0.0,0.0,0.013072515782091294
1997.0,0.30857154528163205,0.16757972918739727,0.4381786280531111,0.02907027884807285,0.012098400692137167,0.0,0.0,0.04450141793764964
2001.0,0.31696793724276695,0.18258622784066209,0.4131929968173178,0.03171114858080531,0.015126188291041245,0.0,0.0,0.0404155012274066
2005.0,0.32361540239737757,0.22047334350620487,0.35647278540775884,0.02805354474283198,0.013601439622897536,0.0,0.0,0.0577834843229292
2010.0,0.36054287169823473,0.2302728101600924,0.2936406386988994,0.027914748526017795,0.009114140703304989,0.030971546238625386,0.009620581034427703,0.03792266294039762
2015.0,0.36809511515993554,0.07870067700897711,0.30774735096721967,0.059039678280252236,0.009746551228478518,0.12643035554169268,0.037710857797167686,0.012529414016276557
